page_num,name,sinta_id,scopus_h_index,google_h_index
1,AGUS SUDARYANTO,3731,7,10
1,SUHARYO SUMOWIDAGDO,59706,95,149
1,INDAH SUCI WIDYAHENING,6005991,9,12
1,RIYANARTO SARNO,29555,19,24
1,MOESIJANTI YUDIARTI ENDANG SOEKATRI,5982442,5,10
1,MAURIDHI HERY PURNOMO,6005015,14,21
1,AHMAD TAUFIQ,260404,9,11
1,I GEDE WENTEN,5977796,24,31
1,ACHMAD NIZAR HIDAYANTO,259819,10,16
1,ACHMAD MUNIR,5974510,13,15
2,DAHLAN ABDULLAH,6719997,15,14
2,ABDUL ROHMAN,42423,24,34
2,EVY YUNIHASTUTI,6031633,16,19
2,TOLE SUTIKNO,23026,14,21
2,ASEP BAYU DANI NANDIYANTO,5974504,24,28
2,MOHAMMAD BASYUNI,5973066,16,16
2,MUHAMMAD HILMY ALFARUQI,6059835,19,20
2,HANUNG ADI NUGROHO,6008762,12,16
2,NURSALAM,5979800,5,15
2,RITA SITA SITORUS,6650563,11,13
3,ACENG SAMBAS,257094,15,14
3,SUKONO,6034164,9,2
3,ANSARI SALEH AHMAR,50447,14,22
3,ARRIDINA SUSAN SILITONGA,5977531,28,30
3,DE ROSAL IGNATIUS MOSES SETIADI,6007744,17,20
3,ISMAIL SUARDI WEKKE,6068793,7,19
3,GOMAA A. M. ALI ,6034836,18,20
3,MOHD HAIZAM MOHD SAUDI,6686378,7,7
3,ADE GAFAR ABDULLAH,257412,8,10
3,MUHAMMAD ROIL BILAD,6714837,22,26
4,MOH. YASIN,5976435,13,17
4,KHAIRURRIJAL,5973327,16,20
4,OBSATAR SINAGA,6103499,8,9
4,DAFIK,5982062,10,15
4,AFRIYANTI SUMBOJA,6676023,26,27
4,JAMALUDDIN JOMPA,258630,26,30
4,TRIO ADIONO,6033680,11,18
4,RULLY CHARITAS INDRA PRAHMANA,257565,15,18
4,HIMSAR AMBARITA,58103,14,13
4,TEUKU HUSAINI,6153056,9,11
5,ABDUL MUN'IM,5986207,9,15
5,DANIEL MURDIYARSO,5976561,37,57
5,SASMOKO,6104158,8,6
5,ANWAR MALLONGI,5975831,13,13
5,NANDY PUTRA,5998838,16,20
5,M CHAIRUL BASRUN UMANAILO,5979571,12,24
5,BRIAN YULIARTO,260433,16,19
5,CHRISTY ATIKA SARI,9003,15,18
5,ACHMAD SAMSUDIN,257767,11,14
5,EKO HARI RACHMAWANTO,5975744,15,18
6,SURYADI ISMADJI,257181,39,45
6,FERRY ISKANDAR,5982774,36,42
6,SRI HARTATI,5998874,7,23
6,HAIRUL ABRAL,260008,15,20
6,TULUS SURYANTO,232388,11,15
6,RISANURI HIDAYAT,6019191,8,11
6,MUHAMMAD ZARLIS,260385,5,8
6,WAYAN FIRDAUS MAHMUDY,5977641,9,20
6,DR. TEDDY SURYA GUNAWAN,6699048,13,16
6,AMIRUL MUKMININ,5977415,9,15
7,DEWI RATIH HANDAYANI,6727630,0,10
7,HADIYANTO,5049,14,21
7,ROVINA,5985016,19,26
7,JAMARI,6023233,12,15
7,RINO ALVANI GANI,6033423,15,18
7,DANA INDRA SENSUSE,5986328,7,13
7,C RINALDI A LESMANA,6033496,12,15
7,MOHAMMED ALI BERAWI,6010622,11,18
7,ANDI SUHANDI,6005865,10,17
7,FERRY EFENDI,256055,7,12
8,ARRY YANUAR,5986131,6,11
8,ROMI FADILLAH RAHMAT,5979022,8,10
8,FORD LUMBAN GAOL,6121076,6,9
8,NASRUDDIN,6033967,10,11
8,SAMSUL RIZAL,6022530,9,10
8,UBAIDILLAH,6091537,15,15
8,HERMAN MAWENGKANG,6132473,6,9
8,RUHYAT PARTASASMITA,257224,6,9
8,SITI ZUBAIDAH,5988462,8,22
8,MAHYUDDIN K. M. NASUTION,56676,13,20
9,MOCHAMMAD HATTA,5974526,25,31
9,KUWAT TRIYANA,6004339,10,13
9,MUHAMMAD HARUN ACHMAD,6011368,8,8
9,RUDY SOENOKO,5996369,9,11
9,HANGGARA SUDRAJAT,6693077,14,15
9,MOHAMMAD IVAN AZIS,21886,14,19
9,KHOIRUDDIN,6666377,15,18
9,HERI HERMANSYAH,42746,7,12
9,ABDURROZZAQ HASIBUAN,6001486,5,7
9,DEWA GEDE HENDRA DIVAYANA,79116,12,14
10,NANDANG MUFTI,51570,11,14
10,SPITS WARNARS HARCO L H,5974892,8,14
10,ERLINA,6029174,10,11
10,MURTHADA,6652491,0,22
10,SUNARYONO,260407,8,9
10,FEDIK ABDUL RANTAM,5992105,7,10
10,MUAFI,6004376,11,9
10,MUHAMAD SAHLAN,5982895,8,11
10,HERQUTANTO,6055881,2,5
10,WAHYU CAESARENDRA,6071118,15,16
11,TULUS,56678,8,9
11,UNANG SUPRATMAN,6043525,10,13
11,ROSDIANA NATZIR,6009015,2,4
11,NUGROHO AGUNG PAMBUDI,5976600,8,11
11,MUHAMMAD DANANG BIROWOSUTO,6196996,19,22
11,ROSARI SALEH,6025608,17,21
11,YUSUF LATIEF,6032234,4,6
11,AZHAR SUSANTO,64611,7,32
11,ADI SOEPRIJANTO,5984035,11,16
11,ANJAR WANTO,6005673,6,25
12,ADIWIJAYA,28391,12,15
12,IMAM GHOZALI,4816,6,61
12,HARRY BUDI SANTOSO,258992,9,14
12,SUPARMI,1642,10,13
12,SURYA DHARMA,5976164,13,13
12,ABBA SUGANDA GIRSANG,5977065,5,7
12,HAIRUS ABDULLAH,6044291,13,13
12,MADA SANJAYA WS,6080660,14,14
12,DWI AGUS KURNIAWAN,6126143,9,16
12,NI KETUT SUARNI,6023805,1,8
13,AKHMAD HABIBI,5977596,7,9
13,KUNDHARU SADDHONO,258849,6,22
13,MITRA DJAMAL,6034599,10,14
13,DIAN SA'ADILLAH MAYLAWATI,6007952,10,12
13,M. MUSLIHUDIN,61117,10,19
13,WAHYUDIN DARMALAKSANA,5992336,9,14
13,MAHFUD,5988449,10,13
13,PROF. DR. NURDIN IBRAHIM,6669114,2,0
13,MUHAMMAD IKHSAN SETIAWAN,5972975,6,10
13,AJI PRASETYA WIBAWA,5980519,6,7
14,JOHAN ISKANDAR,6103850,8,17
14,MEIRYANI,5983962,8,4
14,HERI NURDIYANTO,107368,10,16
14,SRI WIDIYANTORO,6033412,20,21
14,MIKRAJUDDIN ABDULLAH,6099104,22,28
14,SUWARNO,6004601,14,17
14,R. TEDJO SASMONO,6192302,19,25
14,AGUS SABDONO,6006444,7,16
14,DIAH SAVITRI ERNAWATI,5987064,6,7
14,BUDI WIWEKO,5999422,7,10
15,OPIM SALIM SITOMPUL,6090967,10,13
15,SUGENG WAHYUDI,260323,5,24
15,ENY KUSRINI,6027567,11,12
15,IGI ARDIYANTO,42540,7,10
15,YIYI SULAEMAN,6669364,6,9
15,ANDRI DIAN NUGRAHA,21087,11,12
15,AGOES SOEGIANTO,6714645,10,14
15,FELYCIA EDI SOETAREDJO,5974770,18,24
15,RD ROHMAT SAEDUDIN,5975929,6,8
15,SUHARTONO,29080,13,17
16,MARKUS DIANTORO,51568,7,8
16,HERI RETNAWATI,5997032,8,18
16,YUSLI WARDIATNO,5979765,10,20
16,TEGUH BHARATA ADJI,5972729,9,11
16,CARI,6199527,9,13
16,RATU ILMA INDRA PUTRI,5998598,11,14
16,I NYOMAN GEDE WARDANA,6019780,12,15
16,ISMI RAJIANI,6003727,6,9
16,AGUNG TRI WIJAYANTA,6019475,14,15
16,ZULKARDI,5998595,12,19
17,RAYMOND R. TJANDRAWINATA,257902,18,25
17,ABDUL ROHIM TUALEKA,6068678,4,8
17,MARCELINUS CHRISTWARDANA,6682179,12,14
17,ARIEF BUDIMAN,42858,12,14
17,DARMINTO,5975614,12,13
17,MUDRIK,113094,9,13
17,UDIN,6712773,6,6
17,MURDANI ABDULLAH,6657222,13,21
17,AGUS PERDANA WINDARTO,257474,6,25
17,OCKY KARNA RADJASA,5494,10,16
18,ABDI HANRA SEBAYANG,5976491,13,13
18,ANTON TIMUR JAELANI,6719695,6,7
18,MUHAMMAD MIFTAHUL MUNIR,5972659,14,17
18,JANNER SIMARMATA,6018216,9,16
18,KUSWANDEWI MUTYARA,6093818,3,4
18,WAHYU WIDOWATI,5975784,9,19
18,A.N. AFANDI,5972986,14,16
18,NYOMAN DANTES,5980573,4,16
18,KAMARZA MULIA,5998987,9,9
18,REJEKI SIMANJORANG,6155900,13,15
19,IS FATIMAH,5998917,10,15
19,HERU KUSWANTO,5979221,5,7
19,AGUS TRIANTO,6000539,9,10
19,BERNA ELYA,5996334,7,12
19,YUDI FERNANDO,6685344,13,19
19,IKA HESTI AGUSTIN,55574,7,8
19,ISWANTO,30536,12,10
19,NURUL HIDAYAT,5974033,5,4
19,LUKITO EDI NUGROHO,6019356,6,14
19,I KETUT SUDARSANA,245458,2,23
20,IDA KANIAWATI,6005868,7,15
20,AHMAD MARYUDI,42474,19,23
20,MUCHLISIN Z A,256923,14,23
20,NITA ARYANTI,5977727,11,13
20,PURWANTO,6079540,2,12
20,SUPARMAN,5976086,7,3
20,IDA BAGUS NARMADA,5986044,4,5
20,MUHAMMAD KRISTIAWAN,6699829,9,24
20,SYIFAUL FUADA,5981677,9,16
20,CHASTINE FATICHAH,5976088,10,13
21,DJOKO ROESPINOEDJI,6724271,5,5
21,DAHLANG T,6004439,11,12
21,SUHARJITO,6024954,6,7
21,RINO RAKHMATA MUKTI,5982969,22,24
21,MISRI,6030565,7,12
21,BENFANO SOEWITO,25766,7,10
21,ZUHERMAN RUSTAM,6059011,8,0
21,GUNAWAN WANG,5977414,4,3
21,YOSSIE ROSSANTY,6005784,9,8
21,WAYAN SUPARTA,6691002,10,13
22,TAUFIQ HIDAYAT,6031412,13,13
22,SFENRIANTO,5974240,5,6
22,I GUSTI AYU KETUT RACHMI HANDAYANI,5986673,10,9
22,DODDY SETIAWAN,1620,3,13
22,SUGIHARTO,5976904,11,12
22,RIRI FITRI SARI,5977168,11,15
22,SUMARMI,6026254,3,14
22, ZAINAL ABIDIN,6675343,0,32
22,SATRIA ABADI,5974072,8,9
22,LILY MONTARCIH LIMANTARA,6029730,3,8
23,NUNING KURNIASIH,5992902,8,11
23,AGUS RUSDIANA,5975690,1,4
23,ATHANASIUS PRIHARYOTO BAYUSENO,6151,8,12
23,DEENDARLIANTO,44257,16,16
23,HARAPAN,6714669,10,15
23,INSIH WILUJENG,5992675,5,11
23,IFDIL,72510,6,17
23,ANURAGA JAYANEGARA,5973892,14,23
23,SENG HANSUN,5975908,5,11
23,ARIEF BUDIMAN,6012181,12,2
24,ANTOMI SAREGAR,259853,8,14
24,YAHDIANA HARAHAP,5986446,4,14
24,WAHYU HIDAYAT,139204,4,17
24,WAHYUDI SUTOPO,1778,8,12
24,HARJANTO PRABOWO,6041508,4,8
24,ABDUL RAHMAT,6005701,3,7
24,RAHMAT HIDAYAT,86327,9,10
24,BACHTI ALISJAHBANA,6011876,30,40
24,ELZA IBRAHIM AUERKARI,5986261,5,12
24,MUHAMMAD HANAFI,6200362,13,19
25,TAUFIQ HIDAYAT,6699570,13,15
25,DADI RUSDIANA,5974813,6,12
25,ADJI ACHMAD RINALDO FERNANDES,5977664,8,13
25,GUNAWAN,5980767,9,18
25,LALA SEPTEM RIZA,5975668,8,10
25,SAJIDAN,5996640,7,12
25,ARDI GUNARDI,130837,7,13
25,SUDRADJAT,6021929,7,7
25,ADHA IMAM CAHYADI,5985664,12,12
25,MUHAMMAD MIFTAHUSSURUR,6031037,15,16
26,OYAS WAHYUNGGORO,6010292,11,11
26,ROCHMADI,5999282,14,15
26,YUDI DARMA,5985852,10,11
26,MOHAMMAD TAUVIQIRRAHMAN,5974780,7,10
26,MELVA LOUISA,6022454,8,11
26,HAVILUDDIN,47152,8,11
26,DIDI SURYADI,5994183,4,18
26,MUHAMMAD NURDIN,257906,16,17
26,ACHMAD DAENGS GATOT SOEHERMAN,6001894,5,11
26,WIDODO,5982480,16,18
27,ANSARIADI,6009954,7,6
27,SYARIFUL MUBAROK,5975699,3,6
27,LILIK BUDI PRASETYO,5980445,6,14
27,INDRA BUDI,42612,9,13
27,HAWIS H M,5975729,9,13
27,MUHAMMAD DHARMA TUAH PUTRA NASUTION,6005856,9,9
27,SUTRISNO ANGGORO,6015779,5,11
27,MOCHAMAD ASROFI,6690043,9,11
27,SYAFRUDDIN ILYAS,56650,10,11
27,HERAWATI SUSILO,5983398,7,19
28,TANIAWATI SUPALI,6029408,26,30
28,TUTUK DJOKO KUSWORO,6031372,10,13
28,INDARTO,6017999,9,7
28,IKHSAN SIREGAR,5990938,4,9
28,DWI SUHARTANTO,6004215,10,16
28,ALI ALTWAY,6199041,7,8
28,MEYLIANA,6024416,5,7
28,SUDJITO,6665523,8,12
28,KALAMULLAH RAMLI,5991730,6,9
28,SRIADHI,6676173,7,9
29,MARIA FRANCISCA LINDAWATI SOETANTO,6009554,5,7
29,HARTONO,6010289,4,5
29,RUSIADI,91424,7,7
29,DEDY HARTAMA,259865,6,14
29,DWI JUNIATI,74052,5,0
29,YUDA TURANA,5986007,9,12
29,AMANG SUDARSONO,5998687,8,11
29,BAMBANG WIDJANARKO OTOK,5977646,7,10
29,PUTU WURI HANDAYANI,6018026,8,12
29,SATRIA BIJAKSANA,6005043,15,19
30,SOLLY ARYZA,6720670,9,11
30,MUHAMMAD ANSHARI,6195792,13,20
30,UNTUNG RAHARDJA,5999873,5,20
30,M. ZAFRULLAH ARIFIN,5991258,4,30
30,AGUS SETIAWAN,259466,11,16
30,EKO MULYANTO YUNIARNO,5985308,5,7
30,RR. POPPY PUSPITASARI,52055,7,9
30,MUCHTARIDI,5979583,8,12
30,SUSI ARI KRISTINA,6001684,8,11
30,DANU ARIONO,6037427,9,11
31,RIZKY ABDULAH,256907,12,18
31,URIP HARAHAP,6014155,8,7
31,HERMAWAN KRESNO DIPOJONO,6004379,10,11
31,AHMAD NURUL FAJAR,5974943,4,6
31,BAHTIAR SALEH ABBAS,6023592,4,7
31,YUDY SURYA IRAWAN,5991297,9,11
31,FAHMI,260370,8,10
31,ANDOKO,52052,5,7
31,ULFI ANDAYANI ,6021910,7,8
31,DURAN COREBIMA ALOYSIUS,5988492,6,19
32,RINTIS NOVIYANTI,6197427,18,20
32,DENNY SATRIA,95242,8,9
32,SOFIATI DIAN,6085661,9,10
32,ALHADI BUSTAMAM,5987693,7,8
32,HADI SUYONO,5989974,6,10
32,AGUSTINUS AGUNG NUGROHO,6033357,22,26
32,WISNU JATMIKO,37160,18,22
32,SUHERMAN,5973416,4,6
32,MOCHAMAD HARIADI,5978377,7,14
32,TOHARI AHMAD,29560,12,14
33,SRI AGUS SUDJARWO,6029160,12,13
33,BENS PARDAMEAN,6043909,8,10
33,EDDY SURYANTO SOEGOTO,257962,5,8
33,SUNU WIBIRAMA,44334,8,10
33,ABDURRAHMAN,5978273,7,11
33,ARDYONO PRIYADI,6165227,11,14
33,RIDHO ALFARISI,6117983,6,5
33,HARTIWI,6025535,1,4
33,SELO,6010111,5,7
33,DEDY DWI PRASTYO,29423,7,7
34,EDY BUDIMAN,5976902,9,11
34,PUNAJI SETYOSARI,6008093,4,13
34,FERGYANTO E GUNAWAN,6083003,8,11
34,AGUS SETIAWAN,6029743,11,4
34,ERNA BUDHIARTI NABABAN,5984518,6,9
34,SOLIMUN,6019743,6,10
34,HUSNUL KAUSARIAN,5981604,7,6
34,EKO TJIPTO RAHARDJO,6003170,8,11
34,MUHAMMAD YULIANSYAH,5978666,0,3
34,IWAN SUGIHARTONO,257982,10,11
35,SEPTELIA INAWATI WANANDI,6029413,10,13
35,TURRINI YUDIARTI,6031833,8,11
35,IRWAN MEILANO,5973221,19,23
35,IDA FARIDA,6024511,6,11
35,I WAYAN MUSTIKA,260348,6,10
35,HERI PRASETYO,6714595,11,11
35,RACHMAT HIDAYAT,5981449,17,17
35,UMAR KHAYAM,6040365,13,11
35,FITRI UTAMININGRUM,5986838,7,9
35,MUHAMAD SYAZALI,6724969,8,15
36,TATANG HERMAN,5986217,5,14
36,MOHAMMAD FADLY SYAH PUTRA,6013723,6,8
36,ISROLI,6080299,8,11
36,BAMBANG KUSWANDI,55039,21,24
36,LENY YULIATI,257030,16,19
36,CECEP KUSMANA,5987496,6,24
36,ARI FAHRIAL SYAM,6025740,12,18
36,NOFRIJON,5988220,8,9
36,AGUS PURWANTO,2756,19,21
36,DIAH AYU MAHARANI,258957,6,9
37,RINI NUR HASANAH,5989771,5,6
37,CASI SETIANINGSIH,6656060,7,7
37,DODIK RIDHO NURROCHMAT,6006381,11,21
37,SUMINAR PRATAPA,29032,10,13
37,TATAG YULI EKO SISWONO,5984431,7,22
37,MUHARMAN LUBIS,6675409,8,10
37,JUMINA,6010004,9,10
37,HERI KUSWANTO,5977802,6,8
37,AHMAD HARJONO,6037343,5,14
37,HENI RACHMAWATI,5972689,12,15
38,YOKI YULIZAR,5987081,9,8
38,TAUFAN BRAMANTORO,5987370,3,4
38,RANI SAURIASARI,5999547,8,9
38,PURWANTO,4838,6,12
38,PRIHARTINI WIDIYANTI,5982935,4,5
38,EDI ABDURACHMAN,6025903,4,6
38,USMAN SUMO FRIEND TAMBUNAN,5986332,11,14
38,ALEXANDER PATERA NUGRAHA,6718010,6,7
38,IVANDINI T ANGGRANINGRUM,5999578,23,24
38,AGUS HARJOKO,6031957,9,17
39,M. ALI FAUZI,5992883,8,13
39,B M BACHTIAR,6017122,6,8
39,SYAFRUDDIN,6038528,24,28
39,BENYAMIN LAKITAN,53527,9,14
39,ANANG KURNIA,36595,2,6
39,RAYMONDUS RAYMOND KOSALA,5976478,7,10
39,ANTARIKSA,6024065,2,8
39,SUSANTO RAHARDJA,6014281,29,37
39,MOCHAMAD ASHARI,28980,16,23
39,MUHAMMAD ZAINURI,6662335,4,9
40,IRZAMAN,35829,8,13
40,ANWAR KASIM,6000169,7,12
40,IRWANSYAH,5982444,1,5
40,DODDY PRAYOGO,27139,14,16
40,HERLAMBANG SETIADI,6718467,8,11
40,SURYONO,5982451,5,6
40,EFFIONORA ANWAR,6025831,6,14
40,RESMI MUSTARICHIE,5992852,6,8
40,AH. YUSUF,257455,3,10
40,RINA AGUSTINA,6036771,9,10
41,BUDI MURTIYASA,5978134,1,7
41,I KETUT EDDY PURNAMA,5975641,9,13
41,MUHAMMAD LUTFAN LAZUARDI,6071451,7,10
41,MUHAMMAD ARSYAD,6029217,6,9
41,NANANG ISMAIL,6001870,6,7
41,ANTON RAHARDJO,258959,6,9
41,SRI AGUNG FITRI KUSUMA,6029282,4,8
41,NUGRAHA,6034442,11,11
41,MARIA ULFA,6106495,7,6
41,WIDAYAT,5054,7,10
42,SRI WIWOHO MUDJANARKO,158154,5,12
42,ACHMAD CHAFIDZ MAS SAHID,6093121,11,11
42,ARI HANDONO RAMELAN,6104959,5,8
42,DIDIK PRASETYOKO,5998915,11,17
42,LUCHMAN HAKIM,6037433,4,16
42,SITI NURMAINI,54479,7,11
42,BUDIARSO,6645100,7,7
42,ISMA WIDIATY,5978971,4,7
42,HARTONO,60614,6,9
42,DWI HENDRATMO WIDYANTORO,5991741,11,16
43,FREDDY HARYANTO,6032348,8,10
43,NASRUL ,256994,9,11
43,VIVI FAUZIA,5986737,7,8
43,ACHMAD RIZAL,28599,8,12
43,MUHAMAD ALI,6674970,8,9
43,TEDDY MANTORO,119641,11,15
43,BENEDIKTUS YOHAN ARMAN,6192593,11,13
43,ABDUL RAHMAN,260221,10,12
43,SUSRIYATI MAHANAL,5996901,5,13
43,ERFAN HANDOKO,6003936,5,5
44,MESRAN,5974127,5,27
44,RETNOSARI ANDRAJATI,6040377,7,11
44,MUHAMMAD SURYANEGARA,5976741,9,10
44,SRI SUMARMI,6004531,3,10
44,TOTO NUSANTARA,5977204,4,9
44,AHMAD KUSUMAATMAJA,43399,8,8
44,SUHONO HARSO SUPANGKAT,6091468,6,11
44,BAIHAQI SIREGAR,5990449,7,7
44,ISTI SURJANDARI PRAJITNO,6032889,5,8
44,HERI SUTANTO,4921,7,9
45,IRAWATI HANDAYANI,6068406,9,1
45,MUHIDIN,257119,9,8
45,SURYONO,5974848,5,3
45,DANAR PRASEPTIANGGA,2821,6,11
45,EUIS ETI ROHAETI,5974966,2,16
45,AMARILA MALIK,6029371,6,15
45,DIAN HANDAYANI ,258207,9,13
45,R R  ENDANG WIDIASTUTI RETNO KAWURI,6667388,6,5
45,RIYANTO SIGIT,32602,6,7
45,ABDUR RAHMAN AS'ARI,5977226,3,14
46,DWI SISWANTA,6001446,15,18
46,ADHISTYA ERNA PERMANASARI,257869,7,10
46,WIRAWAN,5994090,8,8
46,BUDI SETIADI DARYONO,21420,5,11
46,KADEK SURANATA,5979855,5,7
46,ELMEIDA EFFENDY,5990371,2,2
46,MUH. BARID NIZARUDIN WAJDI,257312,7,6
46,HERU SUSANTO,6034538,15,18
46,JATNA SUPRIATNA,5998979,21,34
46,RONNY MARTIEN,6000871,7,11
47,RR TUTIK SRI HARIYATI,6117848,4,12
47,EDY MEIYANTO,6000429,11,18
47,AHMAD YUNUS,6041252,2,4
47,MUHAMMAD RIVAI,28981,7,11
47,SURYONO,6006866,5,4
47,ENGKOS ACHMAD KOSASIH,5988520,6,7
47,MASAYU LEYLIA KHODRA,6009714,8,11
47,ROTO,5973009,10,7
47,HERMAN TOLLE,32930,6,11
47,WAHYUDIN,5991845,4,8
48,SRITRUSTA SUKARIDHOTO,256953,6,8
48,AKBAR ISKANDAR,5976721,6,10
48,SITI SETIATI,6032079,10,11
48,MOCH. AGUS CHOIRON,5978469,5,8
48,SYAHRIL EFENDI,6008707,5,7
48,ABDULLOH FUAD,260291,7,9
48,AGUS ZAINAL ARIFIN,5975467,8,13
48,ABDUL HARIS,5985767,4,4
48,ROBIYANTO,9254,5,11
48,ISFENTI SADALIA,6023086,5,8
49,EMMA UTAMI,153400,3,13
49,POPPY ANJELISA ZAITUN HASIBUAN,5990153,5,9
49,ABDUL RAUF,6032116,6,19
49,EDVIN ALDRIAN,5983471,14,21
49,IMAM RIADI,22981,5,16
49,HERIANTO,43007,9,9
49,ASRI MAHARANI,6646955,6,10
49,AMBARIYANTO,5490,16,17
49,HASTUTI AZIS,6710867,0,2
49,PARDIMIN,5989570,6,4
50,ISKANDAR MUDA,257985,2,40
50,BINAR KURNIA PRAHANI,6689659,7,8
50,MUHAIMIN RIFA'I,6118973,10,14
50,RAHMAT BUDIARTO,6710660,11,16
50,SUGENG RIYANTO,6067427,10,17
50,FARID DWI MURDIANTO,6054388,9,10
50,SUYOTO,257324,7,9
50,AKHMAD HERMAN YUWONO,5987638,9,12
50,WAKHID AHMAD JAUHARI,2752,8,11
50,ADE FATMA LUBIS,6029170,4,13
