page_num,name,sinta_id,scopus_h_index,google_h_index
1,RIYANARTO SARNO,29555,19,25
1,MAURIDHI HERY PURNOMO,6005015,14,22
1,AHMAD TAUFIQ,260404,10,12
1,I GEDE WENTEN,5977796,24,31
1,ACHMAD NIZAR HIDAYANTO,259819,10,16
1,TOLE SUTIKNO,23026,14,21
1,ACHMAD MUNIR,5974510,4,15
1,ASEP BAYU DANI NANDIYANTO,5974504,25,29
1,ARRIDINA SUSAN SILITONGA,5977531,30,34
1,DAHLAN ABDULLAH,6719997,15,15
2,MOHAMMAD BASYUNI,5973066,16,17
2,ACENG SAMBAS,257094,15,14
2,MUHAMMAD HILMY ALFARUQI,6059835,19,21
2,DE ROSAL IGNATIUS MOSES SETIADI,6007744,19,21
2,HANUNG ADI NUGROHO,6008762,12,15
2,SUKONO,6034164,9,2
2,ANSARI SALEH AHMAR,50447,15,24
2,DANIEL MURDIYARSO,5976561,39,60
2,MOH. YASIN,5976435,14,17
2,NANDY PUTRA,5998838,16,21
3,JAMALUDDIN JOMPA,258630,27,30
3,TEUKU HUSAINI,6153056,9,11
3,MOHAMMED ALI BERAWI,6010622,12,18
3,SRI HARTATI,5998874,7,25
3,M CHAIRUL BASRUN UMANAILO,5979571,13,24
3,BRIAN YULIARTO,260433,17,21
3,CHRISTY ATIKA SARI,9003,15,18
3,EKO HARI RACHMAWANTO,5975744,15,18
3,SURYADI ISMADJI,257181,40,47
3,HAIRUL ABRAL,260008,17,21
4,AFRIYANTI SUMBOJA,6676023,26,28
4,HIMSAR AMBARITA,58103,14,14
4,TRIO ADIONO,6033680,11,18
4,ROMI FADILLAH RAHMAT,5979022,10,10
4,RISANURI HIDAYAT,6019191,8,11
4,MUHAMMAD ZARLIS,260385,5,10
4,FERRY ISKANDAR,5982774,28,42
4,WAYAN FIRDAUS MAHMUDY,5977641,9,21
4,JAMARI,6023233,13,15
4,MAHYUDDIN K. M. NASUTION,56676,14,21
5,HADIYANTO,5049,14,22
5,DR. TEDDY SURYA GUNAWAN,6699048,13,17
5,UBAIDILLAH,6091537,15,15
5,SAMSUL RIZAL,6022530,10,11
5,DANA INDRA SENSUSE,5986328,7,14
5,SURYA DHARMA,5976164,13,13
5,RUHYAT PARTASASMITA,257224,6,10
5,ANJAR WANTO,6005673,8,28
5,HERMAN MAWENGKANG,6132473,6,10
5,FORD LUMBAN GAOL,6121076,6,10
6,WAHYU CAESARENDRA,6071118,16,17
6,KUWAT TRIYANA,6004339,10,14
6,KHOIRUDDIN,6666377,15,18
6,NASRUDDIN,6033967,10,11
6,HERI HERMANSYAH,42746,7,13
6,NANDANG MUFTI,51570,11,15
6,RUDY SOENOKO,5996369,9,11
6,SPITS WARNARS HARCO L H,5974892,8,15
6,MUHAMMAD DANANG BIROWOSUTO,6196996,20,23
6,FELYCIA EDI SOETAREDJO,5974770,19,26
7,ABDURROZZAQ HASIBUAN,6001486,5,9
7,TULUS,56678,8,11
7,ADIWIJAYA,28391,13,15
7,YUSUF LATIEF,6032234,4,7
7,MUHAMAD SAHLAN,5982895,8,12
7,UNANG SUPRATMAN,6043525,11,14
7,JOHAN ISKANDAR,6103850,8,18
7,MUHAMMAD IKHSAN SETIAWAN,5972975,8,12
7,ADI SOEPRIJANTO,5984035,12,16
7,MITRA DJAMAL,6034599,10,14
8,SUPARMI,1642,10,14
8,MARCELINUS CHRISTWARDANA,6682179,14,15
8,MAHFUD,5988449,10,13
8,OPIM SALIM SITOMPUL,6090967,10,14
8,ROSARI SALEH,6025608,17,23
8,HARRY BUDI SANTOSO,258992,9,14
8,SUWARNO,6004601,15,18
8,M. MUSLIHUDIN,61117,10,19
8,MIKRAJUDDIN ABDULLAH,6099104,13,27
8,AGUS SABDONO,6006444,7,17
9,SRI WIDIYANTORO,6033412,8,21
9,MADA SANJAYA WS,6080660,14,14
9,AJI PRASETYA WIBAWA,5980519,7,8
9,DIAN SA'ADILLAH MAYLAWATI,6007952,10,12
9,ABBA SUGANDA GIRSANG,5977065,5,7
9,DARMINTO,5975614,13,15
9,MARKUS DIANTORO,51568,7,10
9,ABDI HANRA SEBAYANG,5976491,13,13
9,CARI,6199527,9,14
9,YUSLI WARDIATNO,5979765,11,20
10,AGUS PERDANA WINDARTO,257474,8,30
10,SUHARTONO,29080,13,18
10,HERI NURDIYANTO,107368,10,16
10,ENY KUSRINI,6027567,11,12
10,ANDRI DIAN NUGRAHA,21087,11,11
10,AGUNG TRI WIJAYANTA,6019475,14,16
10,IGI ARDIYANTO,42540,7,10
10,I NYOMAN GEDE WARDANA,6019780,12,16
10,OCKY KARNA RADJASA,5494,11,17
10,AGUS TRIANTO,6000539,9,11
11,ARIEF BUDIMAN,42858,12,16
11,A.N. AFANDI,5972986,14,16
11,MUHAMMAD MIFTAHUL MUNIR,5972659,14,17
11,MUDRIK,113094,9,14
11,TEGUH BHARATA ADJI,5972729,9,11
11,IS FATIMAH,5998917,11,15
11,RAYMOND R. TJANDRAWINATA,257902,18,25
11,KAMARZA MULIA,5998987,9,10
11,ISWANTO,30536,13,11
11,AGOES SOEGIANTO,6714645,10,14
12,REJEKI SIMANJORANG,6155900,13,16
12,DWI JUNIATI,74052,6,10
12,NURUL HIDAYAT,5974033,5,6
12,ADJI ACHMAD RINALDO FERNANDES,5977664,10,14
12,CHASTINE FATICHAH,5976088,10,14
12,MUCHLISIN Z A,256923,14,23
12,DAHLANG T,6004439,12,13
12,RINO RAKHMATA MUKTI,5982969,3,24
12,RD ROHMAT SAEDUDIN,5975929,6,8
12,IKA HESTI AGUSTIN,55574,7,9
13,LUKITO EDI NUGROHO,6019356,6,15
13,MISRI,6030565,7,13
13,NITA ARYANTI,5977727,11,13
13,MOHAMMAD TAUVIQIRRAHMAN,5974780,9,10
13,ROCHMADI,5999282,14,16
13,DEENDARLIANTO,44257,16,17
13,SYIFAUL FUADA,5981677,9,16
13,SENG HANSUN,5975908,5,11
13,ANURAGA JAYANEGARA,5973892,14,22
13,SUHARJITO,6024954,6,8
14,WIDODO,5982480,16,19
14,SUGIHARTO,5976904,12,12
14,MUHAMMAD NURDIN,257906,17,16
14,WAYAN SUPARTA,6691002,10,13
14,WAHYUDI SUTOPO,1778,8,12
14,TAUFIQ HIDAYAT,6031412,13,14
14,LALA SEPTEM RIZA,5975668,9,10
14,BENFANO SOEWITO,25766,7,11
14,GUNAWAN WANG,5977414,4,3
14,RIRI FITRI SARI,5977168,11,15
15,SFENRIANTO,5974240,5,7
15,SATRIA ABADI,5974072,8,9
15,ZUHERMAN RUSTAM,6059011,8,0
15,SUDRADJAT,6021929,7,8
15,LILY MONTARCIH LIMANTARA,6029730,3,9
15,OYAS WAHYUNGGORO,6010292,11,12
15,DEDY HARTAMA,259865,6,17
15,ERNA BUDHIARTI NABABAN,5984518,6,10
15,HARJANTO PRABOWO,6041508,4,8
15,HAWIS H M,5975729,10,14
16,YUDI DARMA,5985852,10,12
16,RAHMAT HIDAYAT,86327,9,10
16,INDARTO,6017999,9,8
16,IKHSAN SIREGAR,5990938,6,8
16,PURWANTO,4838,6,12
16,TAUFIQ HIDAYAT,6699570,13,16
16,HAVILUDDIN,47152,8,12
16,FAUZI FEBRIANTO,258929,11,17
16,SYAFRUDDIN ILYAS,56650,10,11
16,SUTRISNO ANGGORO,6015779,5,12
17,AGUSTINUS AGUNG NUGROHO,6033357,22,27
17,ADHA IMAM CAHYADI,5985664,12,13
17,ALI ALTWAY,6199041,7,8
17,ULFI ANDAYANI ,6021910,8,8
17,INDRA BUDI,42612,9,13
17,SATRIA BIJAKSANA,6005043,15,20
17,LILIK BUDI PRASETYO,5980445,6,14
17,HERMAWAN KRESNO DIPOJONO,6004379,10,12
17,KALAMULLAH RAMLI,5991730,6,9
17,TUTUK DJOKO KUSWORO,6031372,10,13
18,SAYEKTI WAHYUNINGSIH,6133694,7,10
18,RR. POPPY PUSPITASARI,52055,7,9
18,FAHMI,260370,8,10
18,HADI SUYONO,5989974,6,10
18,RACHMAT HIDAYAT,5981449,17,18
18,EKO MULYANTO YUNIARNO,5985308,5,7
18,PUTU WURI HANDAYANI,6018026,8,13
18,MEYLIANA,6024416,5,7
18,ANDOKO,52052,5,3
18,SUDJITO,6665523,8,13
19,AMANG SUDARSONO,5998687,8,11
19,SYARIFUL MUBAROK,5975699,3,6
19,SOLIMUN,6019743,8,11
19,DANU ARIONO,6037427,9,11
19,AGUS PURWANTO,2756,20,21
19,IWAN SUGIHARTONO,257982,11,13
19,MUHARMAN LUBIS,6675409,9,13
19,ALFRENDO SATYANAGA,6734743,11,14
19,YUDY SURYA IRAWAN,5991297,10,12
19,BAMBANG WIDJANARKO OTOK,5977646,8,10
20,SITI NURMAINI,54479,8,11
20,SOLLY ARYZA,6720670,9,11
20,LUCHMAN HAKIM,6037433,5,17
20,MOHAMMAD FADLY SYAH PUTRA,6013723,8,8
20,IRZAMAN,35829,9,14
20,CECEP KUSMANA,5987496,6,25
20,RINI NUR HASANAH,5989771,5,6
20,BENS PARDAMEAN,6043909,8,11
20,SRI WIWOHO MUDJANARKO,158154,6,16
20,LUKMAN HAKIM,5982925,4,7
21,BUDHY KURNIAWAN,6027801,6,8
21,DEDY DWI PRASTYO,29423,7,8
21,MOCHAMAD HARIADI,5978377,7,14
21,TOHARI AHMAD,29560,12,15
21,AHMAD NURUL FAJAR,5974943,4,6
21,SUHERMAN,5973416,4,6
21,ARDYONO PRIYADI,6165227,11,14
21,NOFRIJON,5988220,8,10
21,FERGYANTO E GUNAWAN,6083003,8,12
21,ALHADI BUSTAMAM,5987693,7,9
22,HERI PRASETYO,6714595,11,11
22,EDY BUDIMAN,5976902,9,12
22,ANWAR KASIM,6000169,7,13
22,WISNU JATMIKO,37160,18,22
22,SUMINAR PRATAPA,29032,10,13
22,LENY YULIATI,257030,17,20
22,ISROLI,6080299,8,12
22,SUNU WIBIRAMA,44334,8,10
22,YOKI YULIZAR,5987081,9,11
22,HUSNUL KAUSARIAN,5981604,7,7
23,I WAYAN MUSTIKA,260348,7,11
23,SELO,6010111,5,9
23,TURRINI YUDIARTI,6031833,8,13
23,IRWAN MEILANO,5973221,19,22
23,FITRI UTAMININGRUM,5986838,7,9
23,DODDY PRAYOGO,27139,14,18
23,JUMINA,6010004,9,11
23,CASI SETIANINGSIH,6656060,7,7
23,M. ALI FAUZI,5992883,8,14
23,EKO TJIPTO RAHARDJO,6003170,8,11
24,BOEDYA DJATMIKA,6683010,1,8
24,MOCHAMAD ASHARI,28980,16,23
24,MUHAMMAD ZAINURI,6662335,4,10
24,DIDIK PRASETYOKO,5998915,12,18
24,HERI SUTANTO,4921,7,10
24,HERI KUSWANTO,5977802,6,7
24,MUHAMMAD SURYANEGARA,5976741,9,11
24,I KETUT EDDY PURNAMA,5975641,9,14
24,ARI HANDONO RAMELAN,6104959,5,8
24,IVANDINI T ANGGRANINGRUM,5999578,23,24
25,MUHAMMAD ARSYAD,6029217,7,9
25,ABDUL RAUF,6032116,6,21
25,JUMRIL YUNAS,6196350,14,8
25,UMAR KHAYAM,6040365,13,11
25,ABDULLOH FUAD,260291,7,11
25,ROTO,5973009,11,11
25,ANANG KURNIA,36595,2,6
25,BENYAMIN LAKITAN,53527,9,14
25,INDRA SURYA,5973219,10,12
25,FREDDY HARYANTO,6032348,8,12
26,WIDAYAT,5054,8,11
26,NUGRAHA,6034442,11,10
26,EDI ABDURACHMAN,6025903,4,7
26,IMAM RIADI,22981,5,17
26,RIYANTO SIGIT,32602,7,7
26,VIVI FAUZIA,5986737,7,8
26,HERU SUSANTO,6034538,16,20
26,AHMAD KUSUMAATMAJA,43399,8,8
26,USMAN SUMO FRIEND TAMBUNAN,5986332,11,15
26,BAIHAQI SIREGAR,5990449,7,8
27,MARIMIN,5978271,10,16
27,MUHAMMAD RIVAI,28981,7,11
27,BUDIARSO,6645100,7,7
27,NANANG ISMAIL,6001870,7,7
27,RAYMONDUS RAYMOND KOSALA,5976478,7,11
27,ERFAN HANDOKO,6003936,5,6
27,ACHMAD RIZAL,28599,8,12
27,TEDDY MANTORO,119641,11,16
27,MAULIDIYAH,257907,12,13
27,AZWAR MANAF,6024912,9,14
28,AGUS HARJOKO,6031957,9,18
28,DADANG GUNAWAN,6034274,8,14
28,AKHIRUDDIN,6043814,6,11
28,BUDI SETIADI DARYONO,21420,5,12
28,DANAR PRASEPTIANGGA,2821,6,12
28,ISTI SURJANDARI PRAJITNO,6032889,5,9
28,RIFKY ISMAIL,5977237,8,9
28,MUHAMMAD IDRUS A,6032046,7,9
28,ANTARIKSA,6024065,2,8
28,ACHMAD CHAFIDZ MAS SAHID,6093121,11,12
29,ENGKOS ACHMAD KOSASIH,5988520,6,8
29,SURYONO,5982451,5,7
29,BASUKI WIDODO,5978703,7,11
29,SUHONO HARSO SUPANGKAT,6091468,7,12
29,DANI GUNAWAN,5979576,7,8
29,ASEP KUSWANDI SUPRIATNA,64593,8,11
29,MESRAN,5974127,5,27
29,HERIANTO,43007,9,10
29,DWI HENDRATMO WIDYANTORO,5991741,11,16
29,R R  ENDANG WIDIASTUTI RETNO KAWURI,6667388,6,5
30,BUDI MURTIYASA,5978134,1,8
30,AGUS ZAINAL ARIFIN,5975467,8,13
30,WIRAWAN,5994090,8,8
30,DWI SISWANTA,6001446,15,18
30,MUHIDIN,257119,9,7
30,WIDIYASTUTI,29623,14,15
30,MOCH. AGUS CHOIRON,5978469,6,8
30,ARIF HIDAYAT,5986267,7,10
30,ABDUL HARIS,5985767,4,5
30,AKBAR ISKANDAR,5976721,6,10
31,WAKHID AHMAD JAUHARI,2752,9,12
31,HERMAN TOLLE,32930,6,11
31,AHMAD YUNUS,6041252,3,4
31,FARID DWI MURDIANTO,6054388,9,10
31,SURYA SUMPENO,5993091,6,10
31,TRISMA JAYA SAPUTRA,6696033,0,28
31,VEINARDI SUENDO,6031960,14,18
31,SURYONO,6006866,5,5
31,MUHAMMAD ZAIRIN JUNIOR,5976150,6,11
31,ADHISTYA ERNA PERMANASARI,257869,7,10
32,AMBARIYANTO,5490,17,18
32,MUHAMMAD ALIF K. SAHIDE,255728,12,14
32,SYAHRIL EFENDI,6008707,5,7
32,ADI SETYO PURNOMO,5988440,11,13
32,MUHAIMIN RIFA'I,6118973,10,16
32,HERMAWAN,6038671,3,4
32,MASAYU LEYLIA KHODRA,6009714,8,11
32,KHAERUDDIN,6072106,4,9
32,RAHMAT HIDAYAT,5980394,6,7
32,EDY WIBOWO,6000899,8,9
33,BAMBANG SOEGIJONO,6024814,5,9
33,SUYOTO,257324,6,9
33,DIEKY ADZKIYA,5986317,6,9
33,WIDYAWAN,43049,11,14
33,DENNY NUGROHO SUGIANTO,6043993,4,7
33,ISKHAQ ISKANDAR,53512,10,12
33,JOKO SISWANTORO,5972761,8,10
33,SUTIMAN BAMBANG SUMITRO,5998175,8,12
33,SITI MACHMUDAH,6004437,23,26
33,ALI KHUMAENI,5977361,10,12
34,PUTU TETA PRIHARTINI ARYANTI,6001600,10,14
34,SYUKRI ARIEF,258036,8,13
34,ARIDA SUSILOWATI,6043819,5,5
34,SHELLA PERMATASARI SANTOSO,6197012,8,9
34,ISKANDAR ZULKARNAEN SIREGAR,36124,7,14
34,R HIDAYAT,139010,2,6
34,GANDJAR KISWANTO,6030457,10,11
34,SUYITNO,6004878,11,14
34,FITRI YULI ZULKIFLI,6002697,8,11
34,NASMI HERLINA SARI,6009230,8,10
35,HARMIN SULISTIYANING TITAH,5977574,9,10
35,SUBIYANTO,6647270,6,4
35,HANDOKO DARMOKOESOEMO,5984225,5,6
35,TINA RATNAWATI,6177404,0,24
35,I MADE JONI,6025380,10,13
35,MOCHAMMAD CHALID,5986101,8,10
35,DWI PEBRIANTI,6039003,6,10
35,D DANARDONO DWI PRIJA T,6091276,6,7
35,YOHANDRI,5973403,9,11
35,DEISKE ADELIENE SUMILAT,45186,8,11
36,SUGENG WINARDI,6031047,11,13
36,ONTOSENO PENANGSANG,6034088,8,12
36,MUHAMMAD ALI IMRON,259768,7,8
36,EKO SETIJADI,5985517,6,8
36,CHAIRUL HUDAYA,5988064,11,12
36,RINALDI IDROES,58243,8,7
36,ALDES LESBANI,53524,9,12
36,MUNAWAR KHALIL,258251,12,13
36,PRANOWO,5973145,6,7
36,DERIS STIAWAN,54481,7,11
37,I GUSTI NGURAH KADE MAHARDIKA,5980624,11,15
37,SUGENG SUPRIADI,6027493,6,9
37,SUBAGJO,6040542,7,7
37,KHOIRUL ANWAR,28240,12,17
37,WIDODO BUDIHARTO,25702,9,21
37,NOOR AKHMAD SETIAWAN,43050,8,12
37,WAHYU HIDAYAT,38578,8,15
37,ZAINUDDIN NAWAWI,5983437,6,8
37,CUCUK NUR ROSYIDI,6002980,5,6
37,MEILANA DHARMA PUTRA,53356,9,10
38,SPARISOMA VIRIDI,6032157,5,7
38,ERI PRASETYO WIBOWO,259887,8,10
38,SUYITNO,1705,8,9
38,SUCIPTO HARIYANTO,5978943,4,7
38,ANDRI CAHYO KUMORO,6101,9,16
38,DWI WINARNI,5984541,7,10
38,DARMAJI,6646279,6,12
38,OSCAR KARNALIM,5975209,4,10
38,SAHRUL HIDAYAT,5998872,6,5
38,TRIYONO,6004607,6,8
39,WIRATNI BUDHIJANTO,257830,7,11
39,DHEWA EDIKRESNHA,6033436,8,7
39,SAMSUL ANWAR,6019262,7,10
39,YUNI KRISYUNINGSIH KRISNANDI,6649802,9,12
39,RUDI,5980140,16,20
39,MULYADI TANJUNG,5987025,9,12
39,CECE SUMANTRI,35684,12,17
39,AHMAD FAUZAN ZAKKI,5975687,8,9
39,EVIZAL,257468,8,10
39,AHYAR,6024716,6,25
40,MOHAMMAD NASIKIN,5976113,7,17
40,SOBIR,6166721,5,13
40,ANWAR ILMAR RAMADHAN,257453,2,9
40,TAUFIK DJATNA,257700,7,10
40,INGE MAGDALENA SUTJAHJA,5977400,9,10
40,I MADE YULISTYA NEGARA,5986158,6,10
40,WARJITO,6059361,6,4
40,SRI APRILIA,6007606,8,11
40,EDI SYAFRI,5975623,6,8
40,SARJIYA,6002168,6,7
41,YAYA HERYADI,5974914,7,9
41,IRMANIDA BATUBARA,6010072,11,15
41,SRI JUARI SANTOSA,42503,15,17
41,"DR. YATI AFIYANTI, SKP. MN",5986960,4,12
41,RISFIDIAN MOHADI,5982099,5,9
41,PHILIPUS BETAUBUN,80111,10,8
41,ABINAWANTO,5999791,5,5
41,PUTU DODDY SUTRISNA,6016571,7,8
41,KUDANG BORO SEMINAR,6039515,6,11
41,MUHAMMAD HARIS MAHYUDDIN,6725085,9,9
42,SANI MUHAMAD ISA,5976968,8,11
42,FITRIAN IMADUDDIN,6718375,14,14
42,ANANG TJAHJONO,5975459,8,9
42,MOCHAMAD ZAKKI FAHMI,5978736,8,10
42,AGUS SUSANTO,6032628,0,16
42,RATNADEWI,5975118,5,6
42,MOCHAMMAD ARIYANTO,5974950,6,7
42,CEPY SLAMET,5994799,7,10
42,MARGO PUJIANTARA,5986157,8,10
42,MUFLIH ARISA ADNAN,6042505,8,8
43,PERDANA MIRAJ SEJATIGUNA,6190616,6,7
43,MIEKE ROCHIMI SETIAWATI,5986088,1,6
43,SRI MULYATI,6012800,8,9
43,DODI NANDIKA,5999596,7,13
43,WAWAN SETIAWAN,5977494,4,13
43,AKHMAD SABARUDIN,5974572,18,21
43,AULANNI'AM,6002206,7,12
43,TITO WALUYO PURBOYO,6030362,5,7
43,BUALKAR ABDULLAH,6018475,4,7
43,TRI LISTYORINI,3526,5,11
44,AGUS SUKOCO,6029524,5,3
44,SUHARSO,5976183,11,16
44,HARWIN SAPTOADI,6034246,6,11
44,SUPENO MARDI SUSIKI NUGROHO,29729,4,6
44,PRATIKTO,6674722,4,7
44,HENDRI WIDIYANDARI,6084139,11,12
44,MUHAMMAD ISRAN RAMLI,5977376,5,9
44,BASUKI,6016257,8,8
44,YUDHO GIRI SUCAHYO,6001383,7,14
44,KELLY ROSSA SUNGKONO,6716398,8,8
45,ERMAN TAER,5989024,13,14
45,WILDAN BUDIAWAN ZULFIKAR,257297,7,10
45,SARIFUDDIN MADENDA,6037868,6,11
45,LEON ANDRETTI ABDILLAH,255727,3,18
45,YUDI PRANOTO,5985267,8,13
45,HILMI AULAWI,5987294,6,9
45,MAMAT ROKHMAT,6016452,7,8
45,LISA DWI WULANDARI,6030738,2,5
45,DIETRIECH GEOFFREY BENGEN,5976308,6,22
45,GANEFRI,72689,6,6
46,IWAN VANANY,6007087,7,13
46,MOCHAMAD SYAMSIRO,257500,6,12
46,SLAMET WAHYUDI,6008766,9,14
46,DADET PRAMADIHANTO,6003276,8,11
46,AGUNG TRISETYARSO,5977159,4,6
46,YOSEF DARYANTO,5975601,4,4
46,ARDIYANSYAH,5999744,3,4
46,RANI MAHARANI,6025484,3,6
46,ANDRIYAN BAYU SUKSMONO,6034787,13,16
46,CHANDRA WAHYU PURNOMO,5972665,8,11
47,AGUS PURWADI,6095648,7,12
47,JAMSARI,5985928,6,8
47,KHAIRUL MUNADI,58409,8,11
47,MOHAMAD ALI FULAZZAKY,6196457,16,19
47,ENDI SUHENDI,5976806,4,10
47,MADLAZIM,5995656,7,9
47,FEMIANA GAPSARI MADHI FITRI,5989426,5,6
47,ROHANI AMBO RAPPE,5973877,7,12
47,NURUL FAIQOTUL HIMMA,6200876,8,9
47,RAHMAT NURCAHYO,6027396,3,6
48,WEGA TRISUNARYANTI,6004928,9,15
48,MUHAMMAD SAID,6042598,6,10
48,DEDI ROSADI,5998834,5,12
48,DESI HARNETI PUTRI HUSPA S,6026535,6,7
48,NURYONO,29934,9,13
48,TAVIO,6023229,10,12
48,SUTISNA,6010035,6,7
48,TIRTO PRAKOSO,20310,7,11
48,YANUAR,6091688,11,9
48,MEDYAN RIZA,6020931,7,10
49,MUHAMMAD AMIN,5976204,4,5
49,AGUNG DHAMAR SYAKTI,6930,12,16
49,MUDASIR,5973502,12,16
49,DIAN RACHMAWATI,5991087,5,7
49,ARI WIDYANTI,6032540,8,9
49,DAMAYANTI,5972563,17,23
49,SRI HAPSARI BUDISULISTIORINI,6087598,18,14
49,MUKTI ZAINUDDIN,5975402,7,13
49,MUCHTAR AHMAD,6674062,1,56
49,BETTY PURWANDARI,6648506,5,6
50,HERDIS HERDIANSYAH,6004072,4,5
50,ANOM BOWOLAKSONO,5998964,7,8
50,JARNUZI GULANZUARDI,257856,9,14
50,BAMBANG SUNENDAR,6033023,6,95
50,DEWI RETNO SARI SAPUTRO,5977693,4,7
50,DIMAS ANTON ASFANI,29462,5,6
50,ANTONIUS SUWANTO,5992881,15,21
50,BAMBANG RIYANTO TRILAKSONO,5976789,10,15
50,HENDRA SUSANTO,5977227,4,6
50,SITI NIKMATIN,6006469,5,7
51,MUHAMMAD NUR,5349,6,10
51,SITI HERLINDA,53604,7,15
51,NIA KURNIAWAN,5998372,9,12
51,IPUNG FITRI PURWANTI,5998560,9,10
51,YANO SURYA PRADANA,44250,8,9
51,TIGOR HAMONANGAN NASUTION,5981790,6,6
51,WIN DARMANTO,5978784,6,9
51,B. HERAWAN HAYADI,6722953,7,9
51,BAMBANG SUHARNO,6025806,6,7
51,YUYUN HIDAYAT,6014614,6,3
52,TRI ATMOJO KUSMAYADI,5992292,5,10
52,ROLLY MAULANA AWANGGA,149195,4,7
52,ASEP AWALUDIN PRIHANTO,5998786,6,10
52,FITRI MARISA,161208,2,5
52,MIRMANTO,28063,6,7
52,IRVAN,6002382,7,9
52,FATCHIYAH,6137819,8,12
52,ELSA ANISA KRISANTI,6661419,7,7
52,ERA PURWANTO,32593,6,8
52,DITDIT NUGERAHA UTAMA,6071635,4,7
53,CARMADI MACHBUB,6033715,6,9
53,BAMBANG IRAWAN,5984560,7,13
53,AYU PURWARIANTI,5991731,9,14
53,FITRIA RAHMAWATI,1689,7,8
53,AMUN AMRI,25481,11,12
53,MAT SYAI IN,5984008,10,13
53,AHMAD AFIF SUPIANTO,5992836,5,5
53,RALDI ARTONO KOESTOER,6032004,5,9
53,ROSA ANDRIE ASMARA,5974590,3,8
53,JUNUN SARTOHADI,259962,12,15
54,SAIB SUWILO,5992373,8,5
54,DIONYSIUS JOSEPH DJOKO HERRY S,5978657,6,7
54,HERI SURYOATMOJO,5984605,6,9
54,I KOMANG GEDE WIRYAWAN,35653,7,15
54,MUHAMMAD ABU BAKAR SIDIK,257018,6,7
54,MUHAMMAD UDIN HARUN AL RASYID,5977606,9,12
54,NANA RACHMANA SYAMBAS,6032857,5,7
54,ANDRI PRANOLO,23069,5,7
54,RIKA,6649409,11,11
54,GAMANTYO HENDRANTORO,6165374,8,10
55,KUSTIN BINTANI MEIGANATI,6043578,0,1
55,TEUKU YURI M ZAGLOEL,6034474,3,6
55,SYAFRUDIN,6006265,5,6
55,HERRI SUSANTO,6008082,6,14
55,BUDI SANTOSA,5975745,7,17
55,SAPTO ANDRIYONO,5982504,2,4
55,FATMAWATI,5978729,8,8
55,SYAMSUL HADI,1782,6,7
55,SUBAER,49844,7,9
55,ANONDHO WIJANARKO,6030398,7,13
56,DENDY ADANTA,6692957,6,5
56,EKA NOVIANA,6693240,4,6
56,ERFAN ROHADI,5983891,3,6
56,ACHMAD ROESYADI,6025002,8,10
56,DYAH HESTI WARDHANI,6007132,6,10
56,IRSYADI YANI,53666,4,6
56,ICHSAN SETIAWAN,58736,6,11
56,SLAMIN ,55671,12,18
56,JANUARTI JAYA EKAPUTRI,29763,7,13
56,ANIS MAHDI,6026333,0,8
57,REGINAWANTI,5985734,1,7
57,IRAWAN WIJAYA KUSUMA,5977083,12,15
57,EMIL ROBERT KABURUAN,257220,2,5
57,TEGUH FIRMANSYAH,76323,8,9
57,NURI ANDARWULAN,6013044,10,28
57,NANIK SUCIATI,6023328,10,15
57,MUHAMMAD SYUKUR,257529,4,18
57,MARWAN,257021,7,8
57,EKO SRI KUNARTI,6031337,6,8
57,ALFINDA NOVI KRISTANTI,5978738,5,9
58,ISKANDAR,6033172,6,6
58,RIDI FERDIANA,44333,5,5
58,WIBAWA HENDRA SAPUTERA,6713564,9,11
58,DENNY WIDHIYANURIYAWAN,6026260,5,8
58,SUGONDO HADIYOSO,258351,7,8
58,MUHJIDIN MAWARDI,6006951,0,14
58,RD RORO DYAH PERWITASARI,35599,16,21
58,ACHMAD FARAJALLAH,5996964,9,16
58,WIDJIATI,5999153,2,4
58,INGRID SURYANTI SURONO,6032077,12,20
59,SUHARDI,6666822,8,9
59,YUSWAN MUHARAM,6031746,4,6
59,WISNU NURCAHYO,6030935,7,10
59,CUT ITA ERLIANA,77872,5,8
59,SLAMET,6032586,8,12
59,SUGIONO,5999149,3,8
59,IMRIYANTI,6668531,0,11
59,DWI SURYANTO,5973215,5,10
59,UUN YANUHAR,5973003,4,9
59,SUWADI,5975950,5,4
60,WITRI WAHYU LESTARI,2249,8,8
60,AHMAD ASHARI,5983428,5,15
60,MADE TRI ARI PENIA KRESNOWATI,21228,10,15
60,PRAMADITYA WICAKSONO,43660,7,10
60,MAS RIZKY A.A SYAMSUNARNO,5973278,8,9
60,CHOIRUL ANAM,5989759,8,11
60,RUDY AGUNG NUGROHO,5973879,6,9
60,ANAK AGUNG PUTU SUSASTRIAWAN,5975136,3,4
60,MUH ARIS MARFAI,5982883,14,22
60,INDAH SOESANTI,42982,12,14
61,MUTHIA ELMA,257332,8,10
61,RONNY MARDIYANTO,29095,7,11
61,YUL YUNAZWIN NAZARUDDIN,6032233,7,10
61,IIP IZUL FALAH,6037686,7,15
61,TEUKU RIHAYAT,88220,9,8
61,AGUS PURWANTO,6646331,0,28
61,YOSEP RUSLIM,6002739,4,8
61,TRIWIYANTO,6091661,6,6
61,RAHMI,58817,6,5
61,SETIJO BISMO,5998897,7,11
62,AKFINY HASDI AIMON,6036590,5,6
62,DEDET CANDRA RIAWAN,5986161,5,5
62,YANA ADITIA GERHANA,6002097,5,6
62,AGUS RIYANTO,6008108,4,6
62,MASYHUR IRSYAM,6029515,8,14
62,HUSIN ALATAS,5979618,9,11
62,DIPO ALDILA,258995,6,8
62,ERMA SAFITRI,5992585,4,5
62,ALIRIDHO BARAKBAH,6195306,5,10
62,TITIN SISWANTINING,5987966,3,4
63,BUDIYONO,5646,8,16
63,PRIMA KRISTALINA,5975458,5,7
63,MALA NURILMALA,36674,5,11
63,ANINDYA WIRASATRIYA,6083099,5,6
63,MHD. REZA M.I. PULUNGAN,43621,7,10
63,AGUS SUNJARIANTO PAMITRAN,6030705,9,10
63,ASRIAL,6024410,6,11
63,WIDODO WAHYU PURWANTO,6033416,8,11
63,PARIKESIT,6021934,8,7
63,KARNA WIJAYA,260194,13,16
64,RAHMAT WIDIA SEMBIRING,259822,4,9
64,GANDEN SUPRIYANTO,5986163,6,7
64,RETNO KUSUMANINGRUM,5045,4,7
64,WAHYU SETIA BUDI,6071167,7,9
64,EKO SISWANTO,5988807,5,8
64,SETIA BUDI,48991,6,7
64,SRI SUBANTI,5993618,3,10
64,ARIS TRI WAHYUDI,257874,8,16
64,ALIMUDDIN,6082868,9,10
64,ULFAH JUNIARTI,5988760,5,11
