INFO:root:index number:350-500
DEBUG:root:i=350
DEBUG:urllib3.connectionpool:Starting new HTTPS connection (1): www.scimagojr.com:443
DEBUG:urllib3.connectionpool:Starting new HTTPS connection (1): www.scimagojr.com:443
DEBUG:urllib3.connectionpool:https://www.scimagojr.com:443 "GET /journalsearch.php?q=21100201535&tip=sid&clean=0 HTTP/1.1" 200 None
DEBUG:urllib3.connectionpool:Starting new HTTPS connection (1): www.scimagojr.com:443
DEBUG:urllib3.connectionpool:https://www.scimagojr.com:443 "GET /journalsearch.php?q=21100201535&tip=sid&clean=0 HTTP/1.1" 200 None
DEBUG:urllib3.connectionpool:Starting new HTTPS connection (1): www.scimagojr.com:443
DEBUG:urllib3.connectionpool:https://www.scimagojr.com:443 "GET /journalsearch.php?q=21100201535&tip=sid&clean=0 HTTP/1.1" 200 None
DEBUG:urllib3.connectionpool:Starting new HTTPS connection (1): www.scimagojr.com:443
DEBUG:urllib3.connectionpool:https://www.scimagojr.com:443 "GET /journalsearch.php?q=21100201535&tip=sid&clean=0 HTTP/1.1" 200 None
DEBUG:urllib3.connectionpool:Starting new HTTPS connection (1): www.scimagojr.com:443
DEBUG:urllib3.connectionpool:https://www.scimagojr.com:443 "GET /journalsearch.php?q=21100201535&tip=sid&clean=0 HTTP/1.1" 200 None
DEBUG:urllib3.connectionpool:Starting new HTTPS connection (1): www.scimagojr.com:443
DEBUG:urllib3.connectionpool:https://www.scimagojr.com:443 "GET /journalsearch.php?q=21100201535&tip=sid&clean=0 HTTP/1.1" 200 None
DEBUG:urllib3.connectionpool:Starting new HTTPS connection (1): www.scimagojr.com:443
DEBUG:urllib3.connectionpool:https://www.scimagojr.com:443 "GET /journalsearch.php?q=21100201535&tip=sid&clean=0 HTTP/1.1" 200 None
DEBUG:urllib3.connectionpool:Starting new HTTPS connection (1): www.scimagojr.com:443
DEBUG:urllib3.connectionpool:https://www.scimagojr.com:443 "GET /journalsearch.php?q=21100201535&tip=sid&clean=0 HTTP/1.1" 200 None
DEBUG:urllib3.connectionpool:Starting new HTTPS connection (1): www.scimagojr.com:443
DEBUG:urllib3.connectionpool:https://www.scimagojr.com:443 "GET /journalsearch.php?q=21100201535&tip=sid&clean=0 HTTP/1.1" 200 None
DEBUG:urllib3.connectionpool:Starting new HTTPS connection (1): www.scimagojr.com:443
DEBUG:urllib3.connectionpool:https://www.scimagojr.com:443 "GET /journalsearch.php?q=130053&tip=sid HTTP/1.1" 200 None
DEBUG:urllib3.connectionpool:Starting new HTTPS connection (1): www.scimagojr.com:443
DEBUG:urllib3.connectionpool:https://www.scimagojr.com:443 "GET /journalsearch.php?q=130053&tip=sid HTTP/1.1" 200 None
DEBUG:urllib3.connectionpool:Starting new HTTPS connection (1): www.scimagojr.com:443
DEBUG:urllib3.connectionpool:https://www.scimagojr.com:443 "GET /journalsearch.php?q=130053&tip=sid HTTP/1.1" 200 None
DEBUG:urllib3.connectionpool:Starting new HTTPS connection (1): www.scimagojr.com:443
DEBUG:urllib3.connectionpool:https://www.scimagojr.com:443 "GET /journalsearch.php?q=130053&tip=sid HTTP/1.1" 200 None
DEBUG:urllib3.connectionpool:Starting new HTTPS connection (1): www.scimagojr.com:443
DEBUG:urllib3.connectionpool:https://www.scimagojr.com:443 "GET /journalsearch.php?q=130053&tip=sid HTTP/1.1" 200 None
DEBUG:urllib3.connectionpool:Starting new HTTPS connection (1): www.scimagojr.com:443
DEBUG:urllib3.connectionpool:https://www.scimagojr.com:443 "GET /journalsearch.php?q=130053&tip=sid HTTP/1.1" 200 None
DEBUG:urllib3.connectionpool:Starting new HTTPS connection (1): www.scimagojr.com:443
DEBUG:urllib3.connectionpool:https://www.scimagojr.com:443 "GET /journalsearch.php?q=130053&tip=sid HTTP/1.1" 200 None
DEBUG:urllib3.connectionpool:Starting new HTTPS connection (1): www.scimagojr.com:443
DEBUG:urllib3.connectionpool:https://www.scimagojr.com:443 "GET /journalsearch.php?q=130053&tip=sid HTTP/1.1" 200 None
DEBUG:urllib3.connectionpool:Starting new HTTPS connection (1): www.scimagojr.com:443
DEBUG:urllib3.connectionpool:https://www.scimagojr.com:443 "GET /journalsearch.php?q=130053&tip=sid HTTP/1.1" 200 None
DEBUG:urllib3.connectionpool:Starting new HTTPS connection (1): www.scimagojr.com:443
DEBUG:urllib3.connectionpool:https://www.scimagojr.com:443 "GET /journalsearch.php?q=130053&tip=sid HTTP/1.1" 200 None
DEBUG:urllib3.connectionpool:Starting new HTTPS connection (1): www.scimagojr.com:443
DEBUG:urllib3.connectionpool:https://www.scimagojr.com:443 "GET /journalsearch.php?q=130053&tip=sid HTTP/1.1" 200 None
DEBUG:urllib3.connectionpool:Starting new HTTPS connection (1): www.scimagojr.com:443
DEBUG:urllib3.connectionpool:https://www.scimagojr.com:443 "GET /journalsearch.php?q=130053&tip=sid HTTP/1.1" 200 None
DEBUG:urllib3.connectionpool:Starting new HTTPS connection (1): www.scimagojr.com:443
DEBUG:urllib3.connectionpool:https://www.scimagojr.com:443 "GET /journalsearch.php?q=130053&tip=sid HTTP/1.1" 200 None
DEBUG:urllib3.connectionpool:Starting new HTTPS connection (1): www.scimagojr.com:443
DEBUG:urllib3.connectionpool:Starting new HTTPS connection (1): www.scimagojr.com:443
DEBUG:urllib3.connectionpool:Starting new HTTPS connection (1): www.scimagojr.com:443
DEBUG:urllib3.connectionpool:Starting new HTTPS connection (1): www.scimagojr.com:443
DEBUG:urllib3.connectionpool:Starting new HTTPS connection (1): www.scimagojr.com:443
DEBUG:urllib3.connectionpool:Starting new HTTPS connection (1): www.scimagojr.com:443
DEBUG:urllib3.connectionpool:Starting new HTTPS connection (1): www.scimagojr.com:443
DEBUG:urllib3.connectionpool:Starting new HTTPS connection (1): www.scimagojr.com:443
DEBUG:urllib3.connectionpool:Starting new HTTPS connection (1): www.scimagojr.com:443
DEBUG:urllib3.connectionpool:Starting new HTTPS connection (1): www.scimagojr.com:443
DEBUG:urllib3.connectionpool:Starting new HTTPS connection (1): www.scimagojr.com:443
DEBUG:urllib3.connectionpool:Starting new HTTPS connection (1): www.scimagojr.com:443
DEBUG:urllib3.connectionpool:Starting new HTTPS connection (1): www.scimagojr.com:443
DEBUG:urllib3.connectionpool:Starting new HTTPS connection (1): www.scimagojr.com:443
DEBUG:urllib3.connectionpool:Starting new HTTPS connection (1): www.scimagojr.com:443
DEBUG:urllib3.connectionpool:Starting new HTTPS connection (1): www.scimagojr.com:443
DEBUG:urllib3.connectionpool:Starting new HTTPS connection (1): www.scimagojr.com:443
DEBUG:urllib3.connectionpool:Starting new HTTPS connection (1): www.scimagojr.com:443
DEBUG:urllib3.connectionpool:Starting new HTTPS connection (1): www.scimagojr.com:443
DEBUG:urllib3.connectionpool:Starting new HTTPS connection (1): www.scimagojr.com:443
DEBUG:urllib3.connectionpool:Starting new HTTPS connection (1): www.scimagojr.com:443
DEBUG:urllib3.connectionpool:Starting new HTTPS connection (1): www.scimagojr.com:443
DEBUG:urllib3.connectionpool:Starting new HTTPS connection (1): www.scimagojr.com:443
DEBUG:urllib3.connectionpool:Starting new HTTPS connection (1): www.scimagojr.com:443
DEBUG:urllib3.connectionpool:Starting new HTTPS connection (1): www.scimagojr.com:443
DEBUG:urllib3.connectionpool:Starting new HTTPS connection (1): www.scimagojr.com:443
DEBUG:urllib3.connectionpool:Starting new HTTPS connection (1): www.scimagojr.com:443
DEBUG:urllib3.connectionpool:Starting new HTTPS connection (1): www.scimagojr.com:443
DEBUG:urllib3.connectionpool:Starting new HTTPS connection (1): www.scimagojr.com:443
DEBUG:urllib3.connectionpool:Starting new HTTPS connection (1): www.scimagojr.com:443
DEBUG:urllib3.connectionpool:Starting new HTTPS connection (1): www.scimagojr.com:443
DEBUG:urllib3.connectionpool:Starting new HTTPS connection (1): www.scimagojr.com:443
DEBUG:urllib3.connectionpool:Starting new HTTPS connection (1): www.scimagojr.com:443
DEBUG:urllib3.connectionpool:Starting new HTTPS connection (1): www.scimagojr.com:443
DEBUG:urllib3.connectionpool:Starting new HTTPS connection (1): www.scimagojr.com:443
DEBUG:urllib3.connectionpool:Starting new HTTPS connection (1): www.scimagojr.com:443
DEBUG:urllib3.connectionpool:Starting new HTTPS connection (1): www.scimagojr.com:443
DEBUG:urllib3.connectionpool:Starting new HTTPS connection (1): www.scimagojr.com:443
DEBUG:urllib3.connectionpool:Starting new HTTPS connection (1): www.scimagojr.com:443
DEBUG:urllib3.connectionpool:Starting new HTTPS connection (1): www.scimagojr.com:443
DEBUG:urllib3.connectionpool:Starting new HTTPS connection (1): www.scimagojr.com:443
DEBUG:urllib3.connectionpool:Starting new HTTPS connection (1): www.scimagojr.com:443
DEBUG:urllib3.connectionpool:Starting new HTTPS connection (1): www.scimagojr.com:443
DEBUG:urllib3.connectionpool:Starting new HTTPS connection (1): www.scimagojr.com:443
DEBUG:urllib3.connectionpool:Starting new HTTPS connection (1): www.scimagojr.com:443
DEBUG:urllib3.connectionpool:Starting new HTTPS connection (1): www.scimagojr.com:443
DEBUG:urllib3.connectionpool:Starting new HTTPS connection (1): www.scimagojr.com:443
DEBUG:urllib3.connectionpool:Starting new HTTPS connection (1): www.scimagojr.com:443
DEBUG:urllib3.connectionpool:Starting new HTTPS connection (1): www.scimagojr.com:443
DEBUG:urllib3.connectionpool:Starting new HTTPS connection (1): www.scimagojr.com:443
DEBUG:urllib3.connectionpool:Starting new HTTPS connection (1): www.scimagojr.com:443
DEBUG:urllib3.connectionpool:Starting new HTTPS connection (1): www.scimagojr.com:443
DEBUG:urllib3.connectionpool:Starting new HTTPS connection (1): www.scimagojr.com:443
DEBUG:urllib3.connectionpool:Starting new HTTPS connection (1): www.scimagojr.com:443
DEBUG:urllib3.connectionpool:Starting new HTTPS connection (1): www.scimagojr.com:443
DEBUG:urllib3.connectionpool:Starting new HTTPS connection (1): www.scimagojr.com:443
DEBUG:urllib3.connectionpool:Starting new HTTPS connection (1): www.scimagojr.com:443
